{
    "index_name": "iMarker", 
    "start_urls": ["https://darkersu.github.io/iMarker/"],
    "rateLimit": 8,
    "maxDepth": 10,
    "selectors": {
      "lvl0": {
        "selector": "",
        "defaultValue": "Documentation"
      },
      "lvl1": ".content h1",
      "lvl2": ".content h2",
      "lvl3": ".content h3",
      "lvl4": ".content h4",
      "lvl5": ".content h5",
      "content": ".content p, .content li"
    },
    "selectors_exclude": [
      "aside",
      ".page-footer",
      ".next-and-prev-link",
      ".table-of-contents"
    ],
    "js_render": true
  }
  